…
Visualizing residuals (cont.)

## `geom_smooth()` using formula 'y ~ x'

<img src="{{< blogdown/postref >}}index_files/figure-html/vis-res-2-1.png" width="70%" />

Visualizing residuals (cont.)

## `geom_smooth()` using formula 'y ~ x'

<img src="{{< blogdown/postref >}}index_files/figure-html/vis-res-3-1.png" width="70%" />
# Categorical predictor with 2 levels

## # A tibble: 2,922 x 3
##    Country     Life_expectancy Status    
##    <chr>                 <dbl> <chr>     
##  1 Afghanistan            65   Developing
##  2 Afghanistan            59.9 Developing
##  3 Afghanistan            59.9 Developing
##  4 Afghanistan            59.5 Developing
##  5 Afghanistan            59.2 Developing
##  6 Afghanistan            58.8 Developing
##  7 Afghanistan            58.6 Developing
##  8 Afghanistan            58.1 Developing
##  9 Afghanistan            57.5 Developing
## 10 Afghanistan            57.3 Developing
## 11 Afghanistan            57.3 Developing
## 12 Afghanistan            57   Developing
## 13 Afghanistan            56.7 Developing
## 14 Afghanistan            56.2 Developing
## 15 Afghanistan            55.3 Developing
## 16 Afghanistan            54.8 Developing
## 17 Albania                77.8 Developing
## 18 Albania                77.5 Developing
## 19 Albania                77.2 Developing
## 20 Albania                76.9 Developing
## # ... with 2,902 more rows
…
NA

NA

NA

NA

NA

]
.pull-right-narrow[
.small[

## # A tibble: 2,922 x 3
##    Country     Life_expectancy Status    
##    <chr>                 <dbl> <chr>     
##  1 Afghanistan            65   Developing
##  2 Afghanistan            59.9 Developing
##  3 Afghanistan            59.9 Developing
##  4 Afghanistan            59.5 Developing
##  5 Afghanistan            59.2 Developing
##  6 Afghanistan            58.8 Developing
##  7 Afghanistan            58.6 Developing
##  8 Afghanistan            58.1 Developing
##  9 Afghanistan            57.5 Developing
## 10 Afghanistan            57.3 Developing
## 11 Afghanistan            57.3 Developing
## 12 Afghanistan            57   Developing
## 13 Afghanistan            56.7 Developing
## 14 Afghanistan            56.2 Developing
## 15 Afghanistan            55.3 Developing
## 16 Afghanistan            54.8 Developing
## 17 Albania                77.8 Developing
## 18 Albania                77.5 Developing
## 19 Albania                77.2 Developing
## 20 Albania                76.9 Developing
## # ... with 2,902 more rows
