…
# Function 1 arrange()
diabetes %>% arrange(desc(Glucose))

## # A tibble: 768 x 9
##    Pregnancies Glucose BloodPressure SkinThickness Insulin   BMI
##          <dbl>   <dbl>         <dbl>         <dbl>   <dbl> <dbl>
##  1           1     199            76            43       0  42.9
##  2           0     198            66            32     274  41.3
##  3           2     197            70            45     543  30.5
##  4           4     197            70            39     744  36.7
##  5           8     197            74             0       0  25.9
##  6           2     197            70            99       0  34.7
##  7           7     196            90             0       0  39.8
##  8           8     196            76            29     280  37.5
##  9           1     196            76            36     249  36.5
## 10           7     195            70            33     145  25.1
## # ... with 758 more rows, and 3 more variables: DiabetesPedigreeFunction <dbl>,
## #   Age <dbl>, Outcome <dbl>

# Function 2 count()
diabetes %>% count(Age)

## # A tibble: 52 x 2
##      Age     n
##    <dbl> <int>
##  1    21    63
##  2    22    72
##  3    23    38
##  4    24    46
##  5    25    48
##  6    26    33
##  7    27    32
##  8    28    35
##  9    29    29
## 10    30    21
## # ... with 42 more rows
…
# Function 1 group_by()

Club <- fifa19 %>% group_by(Club)
Club

## # A tibble: 18,207 x 89
## # Groups:   Club [652]
##       X1     ID Name     Age Photo    Nationality Flag   Overall Potential Club 
##    <dbl>  <dbl> <chr>  <dbl> <chr>    <chr>       <chr>    <dbl>     <dbl> <chr>
##  1     0 158023 L. Me~    31 https:/~ Argentina   https~      94        94 FC B~
##  2     1  20801 Crist~    33 https:/~ Portugal    https~      94        94 Juve~
##  3     2 190871 Neyma~    26 https:/~ Brazil      https~      92        93 Pari~
##  4     3 193080 De Gea    27 https:/~ Spain       https~      91        93 Manc~
##  5     4 192985 K. De~    27 https:/~ Belgium     https~      91        92 Manc~
##  6     5 183277 E. Ha~    27 https:/~ Belgium     https~      91        91 Chel~
##  7     6 177003 L. Mo~    32 https:/~ Croatia     https~      91        91 Real~
##  8     7 176580 L. Su~    31 https:/~ Uruguay     https~      91        91 FC B~
##  9     8 155862 Sergi~    32 https:/~ Spain       https~      91        91 Real~
## 10     9 200389 J. Ob~    25 https:/~ Slovenia    https~      90        93 Atlé~
## # ... with 18,197 more rows, and 79 more variables: Club Logo <chr>,
## #   Value <chr>, Wage <chr>, Special <dbl>, Preferred Foot <chr>,
## #   International Reputation <dbl>, Weak Foot <dbl>, Skill Moves <dbl>,
## #   Work Rate <chr>, Body Type <chr>, Real Face <chr>, Position <chr>,
## #   Jersey Number <dbl>, Joined <chr>, Loaned From <chr>,
## #   Contract Valid Until <chr>, Height <chr>, Weight <chr>, LS <chr>, ST <chr>,
## #   RS <chr>, LW <chr>, LF <chr>, CF <chr>, RF <chr>, RW <chr>, LAM <chr>,
## #   CAM <chr>, RAM <chr>, LM <chr>, LCM <chr>, CM <chr>, RCM <chr>, RM <chr>,
## #   LWB <chr>, LDM <chr>, CDM <chr>, RDM <chr>, RWB <chr>, LB <chr>, LCB <chr>,
…
# Function 2 ungroup()

ungroup(Club)

## # A tibble: 18,207 x 89
##       X1     ID Name     Age Photo    Nationality Flag   Overall Potential Club 
##    <dbl>  <dbl> <chr>  <dbl> <chr>    <chr>       <chr>    <dbl>     <dbl> <chr>
##  1     0 158023 L. Me~    31 https:/~ Argentina   https~      94        94 FC B~
##  2     1  20801 Crist~    33 https:/~ Portugal    https~      94        94 Juve~
##  3     2 190871 Neyma~    26 https:/~ Brazil      https~      92        93 Pari~
##  4     3 193080 De Gea    27 https:/~ Spain       https~      91        93 Manc~
##  5     4 192985 K. De~    27 https:/~ Belgium     https~      91        92 Manc~
##  6     5 183277 E. Ha~    27 https:/~ Belgium     https~      91        91 Chel~
##  7     6 177003 L. Mo~    32 https:/~ Croatia     https~      91        91 Real~
##  8     7 176580 L. Su~    31 https:/~ Uruguay     https~      91        91 FC B~
##  9     8 155862 Sergi~    32 https:/~ Spain       https~      91        91 Real~
## 10     9 200389 J. Ob~    25 https:/~ Slovenia    https~      90        93 Atlé~
## # ... with 18,197 more rows, and 79 more variables: Club Logo <chr>,
## #   Value <chr>, Wage <chr>, Special <dbl>, Preferred Foot <chr>,
## #   International Reputation <dbl>, Weak Foot <dbl>, Skill Moves <dbl>,
## #   Work Rate <chr>, Body Type <chr>, Real Face <chr>, Position <chr>,
## #   Jersey Number <dbl>, Joined <chr>, Loaned From <chr>,
## #   Contract Valid Until <chr>, Height <chr>, Weight <chr>, LS <chr>, ST <chr>,
## #   RS <chr>, LW <chr>, LF <chr>, CF <chr>, RF <chr>, RW <chr>, LAM <chr>,
## #   CAM <chr>, RAM <chr>, LM <chr>, LCM <chr>, CM <chr>, RCM <chr>, RM <chr>,
## #   LWB <chr>, LDM <chr>, CDM <chr>, RDM <chr>, RWB <chr>, LB <chr>, LCB <chr>,
…
selection <- sales[,2:6]

# Function 1 pivot_longer()
selection %>%
  pivot_longer(!Name, names_to = "sales", values_to = "count")

## # A tibble: 66,392 x 3
##    Name              sales       count
##    <chr>             <chr>       <dbl>
##  1 Wii Sports        NA_Sales    41.5 
##  2 Wii Sports        EU_Sales    29.0 
##  3 Wii Sports        JP_Sales     3.77
##  4 Wii Sports        Other_Sales  8.46
##  5 Super Mario Bros. NA_Sales    29.1 
##  6 Super Mario Bros. EU_Sales     3.58
##  7 Super Mario Bros. JP_Sales     6.81
##  8 Super Mario Bros. Other_Sales  0.77
##  9 Mario Kart Wii    NA_Sales    15.8 
## 10 Mario Kart Wii    EU_Sales    12.9 
## # ... with 66,382 more rows

# Function 2 pivot_wider()
selection %>%
  pivot_wider(names_from = NA_Sales, values_from = EU_Sales)

## # A tibble: 15,477 x 412
##    Name     JP_Sales Other_Sales `41.49`  `29.08` `15.85` `15.75` `11.27` `23.2`
##    <chr>       <dbl>       <dbl> <list>   <list>  <list>  <list>  <list>  <list>
##  1 Wii Spo~     3.77        8.46 <dbl [1~ <NULL>  <NULL>  <NULL>  <NULL>  <NULL>
##  2 Super M~     6.81        0.77 <NULL>   <dbl [~ <NULL>  <NULL>  <NULL>  <NULL>
##  3 Mario K~     3.79        3.31 <NULL>   <NULL>  <dbl [~ <NULL>  <NULL>  <NULL>
##  4 Wii Spo~     3.28        2.96 <NULL>   <NULL>  <NULL>  <dbl [~ <NULL>  <NULL>
##  5 Pokemon~    10.2         1    <NULL>   <NULL>  <NULL>  <NULL>  <dbl [~ <NULL>
##  6 Tetris       4.22        0.58 <NULL>   <NULL>  <NULL>  <NULL>  <NULL>  <dbl ~
##  7 New Sup~     6.5         2.9  <NULL>   <NULL>  <NULL>  <NULL>  <NULL>  <NULL>
##  8 Wii Play     2.93        2.85 <NULL>   <NULL>  <NULL>  <NULL>  <NULL>  <NULL>
##  9 New Sup~     4.7         2.26 <NULL>   <NULL>  <NULL>  <NULL>  <NULL>  <NULL>
## 10 Duck Hu~     0.28        0.47 <NULL>   <NULL>  <NULL>  <NULL>  <NULL>  <NULL>
## # ... with 15,467 more rows, and 403 more variables: 11.38 <list>,
## #   14.03 <list>, 14.59 <list>, 26.93 <list>, 9.07 <list>, 9.81 <list>,
## #   9 <list>, 8.94 <list>, 9.09 <list>, 14.97 <list>, 7.01 <list>, 9.43 <list>,
## #   12.78 <list>, 4.75 <list>, 6.42 <list>, 10.83 <list>, 9.54 <list>,
## #   9.63 <list>, 8.41 <list>, 6.06 <list>, 5.57 <list>, 3.44 <list>,
## #   6.85 <list>, 9.03 <list>, 5.89 <list>, 9.67 <list>, 5.17 <list>,
## #   5.77 <list>, 4.99 <list>, 8.25 <list>, 8.52 <list>, 5.54 <list>,
## #   6.99 <list>, 6.75 <list>, 5.98 <list>, 2.55 <list>, 4.74 <list>,
## #   7.97 <list>, 3.8 <list>, 4.4 <list>, 6.91 <list>, 3.01 <list>, 6.16 <list>,
…
# Function 2 drop_na()
selection %>% drop_na()

## # A tibble: 23 x 12
##    Number Name   Country Region Type  Activity_Eviden~ `Last Known Eru~ Latitude
##     <dbl> <chr>  <chr>   <chr>  <chr> <chr>            <chr>               <dbl>
##  1 210010 West ~ Germany Medit~ Maar~ Eruption Dated   8300 BCE             50.2
##  2 210020 Chain~ France  Medit~ Lava~ Eruption Dated   4040 BCE             45.8
##  3 210030 Olot ~ Spain   Medit~ Pyro~ Evidence Credib~ Unknown              42.2
##  4 210040 Calat~ Spain   Medit~ Pyro~ Eruption Dated   3600 BCE             38.9
##  5 211001 Larde~ Italy   Medit~ Expl~ Eruption Observ~ 1282 CE              43.2
##  6 211003 Vulsi~ Italy   Medit~ Cald~ Eruption Observ~ 104 BCE              42.6
##  7 211010 Campi~ Italy   Medit~ Cald~ Eruption Observ~ 1538 CE              40.8
##  8 211030 Ischia Italy   Medit~ Comp~ Eruption Observ~ 1302 CE              40.7
##  9 211031 Palin~ Italy   Medit~ Subm~ Eruption Dated   8040 BCE             39.5
## 10 211041 Panar~ Italy   Medit~ Stra~ Evidence Uncert~ Unknown              38.6
## # ... with 13 more rows, and 4 more variables: Longitude <dbl>,
## #   Elevation (Meters) <dbl>, Dominant_Rock_Type <chr>, Tectonic Setting <chr>
…
